{
  "context": {
    "title": "Lorem Ipsum",
    "body": "Lorem ipsum dolor sit amet consectetur adipisicing elit. Magnam, amet, numquam quaerat atque autem totam veritatis perspiciatis inventore nihil quo debitis, quos praesentium. Culpa, nobis a harum recusandae ducimus dolorum!",
    "media": ""
  },
  "variants": [
    {
      "name": "callout",
      "context": {
        "title": "Lorem Ipsum",
        "body": "Lorem ipsum dolor sit amet consectetur adipisicing elit. Magnam, amet, numquam quaerat atque autem totam veritatis perspiciatis inventore nihil quo debitis, quos praesentium. Culpa, nobis a harum recusandae ducimus dolorum!",
        "media": ""
      }
    },
    {
      "name": "full-screen",
      "context": {
        "title": "Lorem Ipsum",
        "body": "Lorem ipsum dolor sit amet consectetur adipisicing elit. Magnam, amet, numquam quaerat atque autem totam veritatis perspiciatis inventore nihil quo debitis, quos praesentium. Culpa, nobis a harum recusandae ducimus dolorum!",
        "media": "http://via.placeholder.com/1200x1200"
      }
    },
    {
      "name": "video",
      "context": {
        "title": "Lorem Ipsum",
        "body": "Lorem ipsum dolor sit amet consectetur adipisicing elit. Magnam, amet, numquam quaerat atque autem totam veritatis perspiciatis inventore nihil quo debitis, quos praesentium. Culpa, nobis a harum recusandae ducimus dolorum!",
        "media": "https://player.vimeo.com/video/297716519"
      }
    }
  ]
}
