{
  "context": {
    "slides": [
      {
        "image": "http://via.placeholder.com/1000x600?text=1",
        "content": "Lorem ipsum dolor sit amet consectetur adipisicing elit. Quisquam ipsa sunt voluptate nobis! Dolor id facilis praesentium dignissimos! Fugit quis eveniet et iure explicabo. Aperiam, eligendi? Facere maiores veritatis natus."
      },
      {
        "image": "http://via.placeholder.com/1000x600?text=2",
        "content": "Lorem ipsum dolor sit amet consectetur adipisicing elit. Quisquam ipsa sunt voluptate nobis! Dolor id facilis praesentium dignissimos! Fugit quis eveniet et iure explicabo. Aperiam, eligendi? Facere maiores veritatis natus."
      },
      {
        "image": "http://via.placeholder.com/1000x600?text=3",
        "content": "Lorem ipsum dolor sit amet consectetur adipisicing elit. Quisquam ipsa sunt voluptate nobis! Dolor id facilis praesentium dignissimos! Fugit quis eveniet et iure explicabo. Aperiam, eligendi? Facere maiores veritatis natus."
      }
    ]
  }
}
